%YAML 1.1
%TAG !u! tag:unity3d.com,2011:
--- !u!29 &1
OcclusionCullingSettings:
  m_ObjectHideFlags: 0
  serializedVersion: 2
  m_OcclusionBakeSettings:
    smallestOccluder: 5
    smallestHole: 0.25
    backfaceThreshold: 100
  m_SceneGUID: 00000000000000000000000000000000
  m_OcclusionCullingData: {fileID: 0}
--- !u!104 &2
RenderSettings:
  m_ObjectHideFlags: 0
  serializedVersion: 8
  m_Fog: 0
  m_FogColor: {r: 0.5, g: 0.5, b: 0.5, a: 1}
  m_FogMode: 3
  m_FogDensity: 0.01
  m_LinearFogStart: 0
  m_LinearFogEnd: 300
  m_AmbientSkyColor: {r: 0.212, g: 0.227, b: 0.259, a: 1}
  m_AmbientEquatorColor: {r: 0.114, g: 0.125, b: 0.133, a: 1}
  m_AmbientGroundColor: {r: 0.047, g: 0.043, b: 0.035, a: 1}
  m_AmbientIntensity: 1
  m_AmbientMode: 0
  m_SubtractiveShadowColor: {r: 0.42, g: 0.478, b: 0.627, a: 1}
  m_SkyboxMaterial: {fileID: 10304, guid: 0000000000000000f000000000000000, type: 0}
  m_HaloStrength: 0.5
  m_FlareStrength: 1
  m_FlareFadeSpeed: 3
  m_HaloTexture: {fileID: 0}
  m_SpotCookie: {fileID: 10001, guid: 0000000000000000e000000000000000, type: 0}
  m_DefaultReflectionMode: 0
  m_DefaultReflectionResolution: 128
  m_ReflectionBounces: 1
  m_ReflectionIntensity: 1
  m_CustomReflection: {fileID: 0}
  m_Sun: {fileID: 0}
  m_IndirectSpecularColor: {r: 0.3067894, g: 0.29413754, b: 0.24400935, a: 1}
--- !u!157 &4
LightmapSettings:
  m_ObjectHideFlags: 0
  serializedVersion: 9
  m_GIWorkflowMode: 0
  m_GISettings:
    serializedVersion: 2
    m_BounceScale: 1
    m_IndirectOutputScale: 1
    m_AlbedoBoost: 1
    m_TemporalCoherenceThreshold: 1
    m_EnvironmentLightingMode: 0
    m_EnableBakedLightmaps: 1
    m_EnableRealtimeLightmaps: 1
  m_LightmapEditorSettings:
    serializedVersion: 8
    m_Resolution: 2
    m_BakeResolution: 40
    m_TextureWidth: 1024
    m_TextureHeight: 1024
    m_AO: 0
    m_AOMaxDistance: 1
    m_CompAOExponent: 0
    m_CompAOExponentDirect: 0
    m_Padding: 2
    m_LightmapParameters: {fileID: 0}
    m_LightmapsBakeMode: 1
    m_TextureCompression: 1
    m_FinalGather: 0
    m_FinalGatherFiltering: 1
    m_FinalGatherRayCount: 1024
    m_ReflectionCompression: 2
    m_MixedBakeMode: 1
    m_BakeBackend: 0
    m_PVRSampling: 1
    m_PVRDirectSampleCount: 32
    m_PVRSampleCount: 500
    m_PVRBounces: 2
    m_PVRFiltering: 0
    m_PVRFilteringMode: 1
    m_PVRCulling: 1
    m_PVRFilteringGaussRadiusDirect: 1
    m_PVRFilteringGaussRadiusIndirect: 5
    m_PVRFilteringGaussRadiusAO: 2
    m_PVRFilteringAtrousColorSigma: 1
    m_PVRFilteringAtrousNormalSigma: 1
    m_PVRFilteringAtrousPositionSigma: 1
  m_LightingDataAsset: {fileID: 0}
  m_ShadowMaskMode: 2
--- !u!196 &5
NavMeshSettings:
  serializedVersion: 2
  m_ObjectHideFlags: 0
  m_BuildSettings:
    serializedVersion: 2
    agentTypeID: 0
    agentRadius: 0.5
    agentHeight: 2
    agentSlope: 45
    agentClimb: 0.4
    ledgeDropHeight: 0
    maxJumpAcrossDistance: 0
    minRegionArea: 2
    manualCellSize: 0
    cellSize: 0.16666667
    manualTileSize: 0
    tileSize: 256
    accuratePlacement: 0
  m_NavMeshData: {fileID: 0}
--- !u!1001 &105551588
Prefab:
  m_ObjectHideFlags: 0
  serializedVersion: 2
  m_Modification:
    m_TransformParent: {fileID: 0}
    m_Modifications:
    - target: {fileID: 438522, guid: 0f5e447e22596a243a91ec34048628d1, type: 2}
      propertyPath: m_LocalPosition.x
      value: 0
      objectReference: {fileID: 0}
    - target: {fileID: 438522, guid: 0f5e447e22596a243a91ec34048628d1, type: 2}
      propertyPath: m_LocalPosition.y
      value: 0
      objectReference: {fileID: 0}
    - target: {fileID: 438522, guid: 0f5e447e22596a243a91ec34048628d1, type: 2}
      propertyPath: m_LocalPosition.z
      value: 0
      objectReference: {fileID: 0}
    - target: {fileID: 438522, guid: 0f5e447e22596a243a91ec34048628d1, type: 2}
      propertyPath: m_LocalRotation.x
      value: 0
      objectReference: {fileID: 0}
    - target: {fileID: 438522, guid: 0f5e447e22596a243a91ec34048628d1, type: 2}
      propertyPath: m_LocalRotation.y
      value: 0
      objectReference: {fileID: 0}
    - target: {fileID: 438522, guid: 0f5e447e22596a243a91ec34048628d1, type: 2}
      propertyPath: m_LocalRotation.z
      value: 0
      objectReference: {fileID: 0}
    - target: {fileID: 438522, guid: 0f5e447e22596a243a91ec34048628d1, type: 2}
      propertyPath: m_LocalRotation.w
      value: 1
      objectReference: {fileID: 0}
    - target: {fileID: 438522, guid: 0f5e447e22596a243a91ec34048628d1, type: 2}
      propertyPath: m_RootOrder
      value: 2
      objectReference: {fileID: 0}
    - target: {fileID: 11487608, guid: 0f5e447e22596a243a91ec34048628d1, type: 2}
      propertyPath: HologramCollection
      value: 
      objectReference: {fileID: 235072803}
    m_RemovedComponents: []
  m_ParentPrefab: {fileID: 100100000, guid: 0f5e447e22596a243a91ec34048628d1, type: 2}
  m_IsPrefabParent: 0
--- !u!1001 &150882246
Prefab:
  m_ObjectHideFlags: 0
  serializedVersion: 2
  m_Modification:
    m_TransformParent: {fileID: 0}
    m_Modifications:
    - target: {fileID: 114000012676596954, guid: db5d50d60b0863341be4ce64455775a8,
        type: 2}
      propertyPath: KeywordsAndResponses.Array.size
      value: 1
      objectReference: {fileID: 0}
    - target: {fileID: 114000012676596954, guid: db5d50d60b0863341be4ce64455775a8,
        type: 2}
      propertyPath: KeywordsAndResponses.Array.data[1].Response.m_PersistentCalls.m_Calls.Array.size
      value: 1
      objectReference: {fileID: 0}
    - target: {fileID: 114000012676596954, guid: db5d50d60b0863341be4ce64455775a8,
        type: 2}
      propertyPath: KeywordsAndResponses.Array.data[0].Response.m_PersistentCalls.m_Calls.Array.size
      value: 1
      objectReference: {fileID: 0}
    - target: {fileID: 487370, guid: db5d50d60b0863341be4ce64455775a8, type: 2}
      propertyPath: m_LocalPosition.x
      value: 0
      objectReference: {fileID: 0}
    - target: {fileID: 487370, guid: db5d50d60b0863341be4ce64455775a8, type: 2}
      propertyPath: m_LocalPosition.y
      value: -0.6
      objectReference: {fileID: 0}
    - target: {fileID: 487370, guid: db5d50d60b0863341be4ce64455775a8, type: 2}
      propertyPath: m_LocalPosition.z
      value: 2
      objectReference: {fileID: 0}
    - target: {fileID: 487370, guid: db5d50d60b0863341be4ce64455775a8, type: 2}
      propertyPath: m_LocalRotation.x
      value: 0
      objectReference: {fileID: 0}
    - target: {fileID: 487370, guid: db5d50d60b0863341be4ce64455775a8, type: 2}
      propertyPath: m_LocalRotation.y
      value: 1
      objectReference: {fileID: 0}
    - target: {fileID: 487370, guid: db5d50d60b0863341be4ce64455775a8, type: 2}
      propertyPath: m_LocalRotation.z
      value: 0
      objectReference: {fileID: 0}
    - target: {fileID: 487370, guid: db5d50d60b0863341be4ce64455775a8, type: 2}
      propertyPath: m_LocalRotation.w
      value: -0.00000004371139
      objectReference: {fileID: 0}
    - target: {fileID: 487370, guid: db5d50d60b0863341be4ce64455775a8, type: 2}
      propertyPath: m_RootOrder
      value: 7
      objectReference: {fileID: 0}
    - target: {fileID: 114000013871314322, guid: db5d50d60b0863341be4ce64455775a8,
        type: 2}
      propertyPath: ExpandedModel
      value: 
      objectReference: {fileID: 1292247012}
    - target: {fileID: 11409080, guid: db5d50d60b0863341be4ce64455775a8, type: 2}
      propertyPath: Cursor
      value: 
      objectReference: {fileID: 2088344740}
    - target: {fileID: 114000013635624924, guid: db5d50d60b0863341be4ce64455775a8,
        type: 2}
      propertyPath: ObjectToTagAlong
      value: 
      objectReference: {fileID: 194316, guid: 5483f30597d2db743960f654988cba05, type: 2}
    - target: {fileID: 114000012676596954, guid: db5d50d60b0863341be4ce64455775a8,
        type: 2}
      propertyPath: KeywordsAndResponses.Array.data[1].Keyword
      value: Close
      objectReference: {fileID: 0}
    - target: {fileID: 114000012676596954, guid: db5d50d60b0863341be4ce64455775a8,
        type: 2}
      propertyPath: KeywordsAndResponses.Array.data[1].Response.m_PersistentCalls.m_Calls.Array.data[0].m_Target
      value: 
      objectReference: {fileID: 1392013407}
    - target: {fileID: 114000012676596954, guid: db5d50d60b0863341be4ce64455775a8,
        type: 2}
      propertyPath: KeywordsAndResponses.Array.data[1].Response.m_PersistentCalls.m_Calls.Array.data[0].m_MethodName
      value: CloseCommunicator
      objectReference: {fileID: 0}
    - target: {fileID: 114000012676596954, guid: db5d50d60b0863341be4ce64455775a8,
        type: 2}
      propertyPath: KeywordsAndResponses.Array.data[1].Response.m_PersistentCalls.m_Calls.Array.data[0].m_Mode
      value: 1
      objectReference: {fileID: 0}
    - target: {fileID: 114000012676596954, guid: db5d50d60b0863341be4ce64455775a8,
        type: 2}
      propertyPath: KeywordsAndResponses.Array.data[1].Response.m_PersistentCalls.m_Calls.Array.data[0].m_Arguments.m_ObjectArgumentAssemblyTypeName
      value: UnityEngine.Object, UnityEngine
      objectReference: {fileID: 0}
    - target: {fileID: 114000012676596954, guid: db5d50d60b0863341be4ce64455775a8,
        type: 2}
      propertyPath: KeywordsAndResponses.Array.data[1].Response.m_PersistentCalls.m_Calls.Array.data[0].m_CallState
      value: 2
      objectReference: {fileID: 0}
    - target: {fileID: 114000012676596954, guid: db5d50d60b0863341be4ce64455775a8,
        type: 2}
      propertyPath: KeywordsAndResponses.Array.data[1].Response.m_TypeName
      value: UnityEngine.Events.UnityEvent, UnityEngine, Version=0.0.0.0, Culture=neutral,
        PublicKeyToken=null
      objectReference: {fileID: 0}
    - target: {fileID: 114000012676596954, guid: db5d50d60b0863341be4ce64455775a8,
        type: 2}
      propertyPath: KeywordsAndResponses.Array.data[0].Response.m_PersistentCalls.m_Calls.Array.data[1].m_Mode
      value: 1
      objectReference: {fileID: 0}
    - target: {fileID: 114000012676596954, guid: db5d50d60b0863341be4ce64455775a8,
        type: 2}
      propertyPath: KeywordsAndResponses.Array.data[0].Response.m_PersistentCalls.m_Calls.Array.data[1].m_CallState
      value: 2
      objectReference: {fileID: 0}
    - target: {fileID: 114000012676596954, guid: db5d50d60b0863341be4ce64455775a8,
        type: 2}
      propertyPath: KeywordsAndResponses.Array.data[0].Response.m_PersistentCalls.m_Calls.Array.data[1].m_Target
      value: 
      objectReference: {fileID: 1392013407}
    - target: {fileID: 114000012676596954, guid: db5d50d60b0863341be4ce64455775a8,
        type: 2}
      propertyPath: KeywordsAndResponses.Array.data[0].Keyword
      value: Hello
      objectReference: {fileID: 0}
    - target: {fileID: 114000012676596954, guid: db5d50d60b0863341be4ce64455775a8,
        type: 2}
      propertyPath: KeywordsAndResponses.Array.data[0].Response.m_PersistentCalls.m_Calls.Array.data[1].m_MethodName
      value: CloseCommunicator
      objectReference: {fileID: 0}
    - target: {fileID: 114000012676596954, guid: db5d50d60b0863341be4ce64455775a8,
        type: 2}
      propertyPath: KeywordsAndResponses.Array.data[0].Response.m_PersistentCalls.m_Calls.Array.data[1].m_Arguments.m_ObjectArgumentAssemblyTypeName
      value: UnityEngine.Object, UnityEngine
      objectReference: {fileID: 0}
    m_RemovedComponents: []
  m_ParentPrefab: {fileID: 100100000, guid: db5d50d60b0863341be4ce64455775a8, type: 2}
  m_IsPrefabParent: 0
--- !u!1 &235072803 stripped
GameObject:
  m_PrefabParentObject: {fileID: 154460, guid: db5d50d60b0863341be4ce64455775a8, type: 2}
  m_PrefabInternal: {fileID: 150882246}
--- !u!1001 &561344824
Prefab:
  m_ObjectHideFlags: 0
  serializedVersion: 2
  m_Modification:
    m_TransformParent: {fileID: 0}
    m_Modifications:
    - target: {fileID: 472038, guid: 986eb9aac6a478c4ea47028930568f98, type: 2}
      propertyPath: m_LocalPosition.x
      value: 0
      objectReference: {fileID: 0}
    - target: {fileID: 472038, guid: 986eb9aac6a478c4ea47028930568f98, type: 2}
      propertyPath: m_LocalPosition.y
      value: 0
      objectReference: {fileID: 0}
    - target: {fileID: 472038, guid: 986eb9aac6a478c4ea47028930568f98, type: 2}
      propertyPath: m_LocalPosition.z
      value: 0
      objectReference: {fileID: 0}
    - target: {fileID: 472038, guid: 986eb9aac6a478c4ea47028930568f98, type: 2}
      propertyPath: m_LocalRotation.x
      value: 0.045273148
      objectReference: {fileID: 0}
    - target: {fileID: 472038, guid: 986eb9aac6a478c4ea47028930568f98, type: 2}
      propertyPath: m_LocalRotation.y
      value: -0.74010444
      objectReference: {fileID: 0}
    - target: {fileID: 472038, guid: 986eb9aac6a478c4ea47028930568f98, type: 2}
      propertyPath: m_LocalRotation.z
      value: 0.5260178
      objectReference: {fileID: 0}
    - target: {fileID: 472038, guid: 986eb9aac6a478c4ea47028930568f98, type: 2}
      propertyPath: m_LocalRotation.w
      value: 0.4165347
      objectReference: {fileID: 0}
    - target: {fileID: 472038, guid: 986eb9aac6a478c4ea47028930568f98, type: 2}
      propertyPath: m_RootOrder
      value: 4
      objectReference: {fileID: 0}
    m_RemovedComponents: []
  m_ParentPrefab: {fileID: 100100000, guid: 986eb9aac6a478c4ea47028930568f98, type: 2}
  m_IsPrefabParent: 0
--- !u!1 &955497817 stripped
GameObject:
  m_PrefabParentObject: {fileID: 183460, guid: dcfff29e15ef0304dbfabcb30a37ad97, type: 2}
  m_PrefabInternal: {fileID: 2030258809}
--- !u!1 &1044605500
GameObject:
  m_ObjectHideFlags: 0
  m_PrefabParentObject: {fileID: 0}
  m_PrefabInternal: {fileID: 0}
  serializedVersion: 5
  m_Component:
  - component: {fileID: 1044605504}
  - component: {fileID: 1044605502}
  - component: {fileID: 1044605501}
  - component: {fileID: 1044605505}
  - component: {fileID: 1044605503}
  - component: {fileID: 1044605506}
  - component: {fileID: 1044605508}
  - component: {fileID: 1044605507}
  m_Layer: 0
  m_Name: Managers
  m_TagString: Untagged
  m_Icon: {fileID: 0}
  m_NavMeshLayer: 0
  m_StaticEditorFlags: 0
  m_IsActive: 1
--- !u!114 &1044605501
MonoBehaviour:
  m_ObjectHideFlags: 0
  m_PrefabParentObject: {fileID: 0}
  m_PrefabInternal: {fileID: 0}
  m_GameObject: {fileID: 1044605500}
  m_Enabled: 1
  m_EditorHideFlags: 0
  m_Script: {fileID: 11500000, guid: 07d04de789fbaca42a2d3891a49424ec, type: 3}
  m_Name: 
  m_EditorClassIdentifier: 
  StoredStabilitySamples: 60
  PositionDropOffRadius: 0.02
  DirectionDropOffRadius: 0.1
  PositionStrength: 0.66
  DirectionStrength: 0.83
  StabilityAverageDistanceWeight: 2
  StabilityVarianceWeight: 1
--- !u!114 &1044605502
MonoBehaviour:
  m_ObjectHideFlags: 0
  m_PrefabParentObject: {fileID: 0}
  m_PrefabInternal: {fileID: 0}
  m_GameObject: {fileID: 1044605500}
  m_Enabled: 1
  m_EditorHideFlags: 0
  m_Script: {fileID: 11500000, guid: e852b8ea6948f5a4eac1085daf22ad2c, type: 3}
  m_Name: 
  m_EditorClassIdentifier: 
--- !u!114 &1044605503
MonoBehaviour:
  m_ObjectHideFlags: 0
  m_PrefabParentObject: {fileID: 0}
  m_PrefabInternal: {fileID: 0}
  m_GameObject: {fileID: 1044605500}
  m_Enabled: 1
  m_EditorHideFlags: 0
  m_Script: {fileID: 11500000, guid: cccdb509dd735ab4c98fd19252f63089, type: 3}
  m_Name: 
  m_EditorClassIdentifier: 
  MaxGazeDistance: 5
  RaycastLayerMask:
    serializedVersion: 2
    m_Bits: 4294966777
--- !u!4 &1044605504
Transform:
  m_ObjectHideFlags: 0
  m_PrefabParentObject: {fileID: 0}
  m_PrefabInternal: {fileID: 0}
  m_GameObject: {fileID: 1044605500}
  m_LocalRotation: {x: 0, y: 0, z: 0, w: 1}
  m_LocalPosition: {x: 0, y: 0, z: 0}
  m_LocalScale: {x: 1, y: 1, z: 1}
  m_Children: []
  m_Father: {fileID: 0}
  m_RootOrder: 1
  m_LocalEulerAnglesHint: {x: 0, y: 0, z: 0}
--- !u!114 &1044605505
MonoBehaviour:
  m_ObjectHideFlags: 0
  m_PrefabParentObject: {fileID: 0}
  m_PrefabInternal: {fileID: 0}
  m_GameObject: {fileID: 1044605500}
  m_Enabled: 1
  m_EditorHideFlags: 0
  m_Script: {fileID: 11500000, guid: e59a5cedf2abe0349980e8d38fe29455, type: 3}
  m_Name: 
  m_EditorClassIdentifier: 
--- !u!114 &1044605506
MonoBehaviour:
  m_ObjectHideFlags: 0
  m_PrefabParentObject: {fileID: 0}
  m_PrefabInternal: {fileID: 0}
  m_GameObject: {fileID: 1044605500}
  m_Enabled: 1
  m_EditorHideFlags: 0
  m_Script: {fileID: 11500000, guid: 6a6af9fcc3a260d43b5541e1cb970480, type: 3}
  m_Name: 
  m_EditorClassIdentifier: 
  FingerPressedSound: {fileID: 8300000, guid: 9c0ace72966b7234b9d9f946da8b666d, type: 3}
--- !u!114 &1044605507
MonoBehaviour:
  m_ObjectHideFlags: 0
  m_PrefabParentObject: {fileID: 0}
  m_PrefabInternal: {fileID: 0}
  m_GameObject: {fileID: 1044605500}
  m_Enabled: 1
  m_EditorHideFlags: 0
  m_Script: {fileID: 11500000, guid: a333841e009c6a448b8a9b88ba8c7f39, type: 3}
  m_Name: 
  m_EditorClassIdentifier: 
--- !u!114 &1044605508
MonoBehaviour:
  m_ObjectHideFlags: 0
  m_PrefabParentObject: {fileID: 0}
  m_PrefabInternal: {fileID: 0}
  m_GameObject: {fileID: 1044605500}
  m_Enabled: 1
  m_EditorHideFlags: 0
  m_Script: {fileID: 11500000, guid: 53614684e0d048540a66dace078dd492, type: 3}
  m_Name: 
  m_EditorClassIdentifier: 
  HandGuidanceIndicator: {fileID: 1000011496978826, guid: 49554dd136b503241a642f28b940de68,
    type: 2}
  IndicatorParent: {fileID: 955497817}
  HandGuidanceThreshold: 0.5
--- !u!1001 &1221385398
Prefab:
  m_ObjectHideFlags: 0
  serializedVersion: 2
  m_Modification:
    m_TransformParent: {fileID: 0}
    m_Modifications:
    - target: {fileID: 401514, guid: 1c64dcdb3dd75464794d8eb62b657a18, type: 2}
      propertyPath: m_LocalPosition.x
      value: 0
      objectReference: {fileID: 0}
    - target: {fileID: 401514, guid: 1c64dcdb3dd75464794d8eb62b657a18, type: 2}
      propertyPath: m_LocalPosition.y
      value: 0
      objectReference: {fileID: 0}
    - target: {fileID: 401514, guid: 1c64dcdb3dd75464794d8eb62b657a18, type: 2}
      propertyPath: m_LocalPosition.z
      value: 0
      objectReference: {fileID: 0}
    - target: {fileID: 401514, guid: 1c64dcdb3dd75464794d8eb62b657a18, type: 2}
      propertyPath: m_LocalRotation.x
      value: 0
      objectReference: {fileID: 0}
    - target: {fileID: 401514, guid: 1c64dcdb3dd75464794d8eb62b657a18, type: 2}
      propertyPath: m_LocalRotation.y
      value: 0
      objectReference: {fileID: 0}
    - target: {fileID: 401514, guid: 1c64dcdb3dd75464794d8eb62b657a18, type: 2}
      propertyPath: m_LocalRotation.z
      value: 0
      objectReference: {fileID: 0}
    - target: {fileID: 401514, guid: 1c64dcdb3dd75464794d8eb62b657a18, type: 2}
      propertyPath: m_LocalRotation.w
      value: 1
      objectReference: {fileID: 0}
    - target: {fileID: 401514, guid: 1c64dcdb3dd75464794d8eb62b657a18, type: 2}
      propertyPath: m_RootOrder
      value: 6
      objectReference: {fileID: 0}
    m_RemovedComponents: []
  m_ParentPrefab: {fileID: 100100000, guid: 1c64dcdb3dd75464794d8eb62b657a18, type: 2}
  m_IsPrefabParent: 0
--- !u!1001 &1292247011
Prefab:
  m_ObjectHideFlags: 0
  serializedVersion: 2
  m_Modification:
    m_TransformParent: {fileID: 0}
    m_Modifications:
    - target: {fileID: 449304, guid: 62adf19d62d644144bba4200d845566a, type: 2}
      propertyPath: m_LocalPosition.x
      value: 0
      objectReference: {fileID: 0}
    - target: {fileID: 449304, guid: 62adf19d62d644144bba4200d845566a, type: 2}
      propertyPath: m_LocalPosition.y
      value: 0
      objectReference: {fileID: 0}
    - target: {fileID: 449304, guid: 62adf19d62d644144bba4200d845566a, type: 2}
      propertyPath: m_LocalPosition.z
      value: 0
      objectReference: {fileID: 0}
    - target: {fileID: 449304, guid: 62adf19d62d644144bba4200d845566a, type: 2}
      propertyPath: m_LocalRotation.x
      value: 0
      objectReference: {fileID: 0}
    - target: {fileID: 449304, guid: 62adf19d62d644144bba4200d845566a, type: 2}
      propertyPath: m_LocalRotation.y
      value: 1
      objectReference: {fileID: 0}
    - target: {fileID: 449304, guid: 62adf19d62d644144bba4200d845566a, type: 2}
      propertyPath: m_LocalRotation.z
      value: 0
      objectReference: {fileID: 0}
    - target: {fileID: 449304, guid: 62adf19d62d644144bba4200d845566a, type: 2}
      propertyPath: m_LocalRotation.w
      value: -0.00000004371139
      objectReference: {fileID: 0}
    - target: {fileID: 449304, guid: 62adf19d62d644144bba4200d845566a, type: 2}
      propertyPath: m_RootOrder
      value: 8
      objectReference: {fileID: 0}
    m_RemovedComponents: []
  m_ParentPrefab: {fileID: 100100000, guid: 62adf19d62d644144bba4200d845566a, type: 2}
  m_IsPrefabParent: 0
--- !u!1 &1292247012 stripped
GameObject:
  m_PrefabParentObject: {fileID: 154686, guid: 62adf19d62d644144bba4200d845566a, type: 2}
  m_PrefabInternal: {fileID: 1292247011}
--- !u!114 &1392013407 stripped
MonoBehaviour:
  m_PrefabParentObject: {fileID: 114000013648019048, guid: db5d50d60b0863341be4ce64455775a8,
    type: 2}
  m_PrefabInternal: {fileID: 150882246}
  m_Script: {fileID: 11500000, guid: f9c4a575d78e34349ae57f162a71b5f9, type: 3}
--- !u!1001 &1456085195
Prefab:
  m_ObjectHideFlags: 0
  serializedVersion: 2
  m_Modification:
    m_TransformParent: {fileID: 0}
    m_Modifications:
    - target: {fileID: 4000010238916134, guid: e479168dfdfb19248a685bc98134692a, type: 2}
      propertyPath: m_LocalPosition.x
      value: 0
      objectReference: {fileID: 0}
    - target: {fileID: 4000010238916134, guid: e479168dfdfb19248a685bc98134692a, type: 2}
      propertyPath: m_LocalPosition.y
      value: 0
      objectReference: {fileID: 0}
    - target: {fileID: 4000010238916134, guid: e479168dfdfb19248a685bc98134692a, type: 2}
      propertyPath: m_LocalPosition.z
      value: 0
      objectReference: {fileID: 0}
    - target: {fileID: 4000010238916134, guid: e479168dfdfb19248a685bc98134692a, type: 2}
      propertyPath: m_LocalRotation.x
      value: 0
      objectReference: {fileID: 0}
    - target: {fileID: 4000010238916134, guid: e479168dfdfb19248a685bc98134692a, type: 2}
      propertyPath: m_LocalRotation.y
      value: 0
      objectReference: {fileID: 0}
    - target: {fileID: 4000010238916134, guid: e479168dfdfb19248a685bc98134692a, type: 2}
      propertyPath: m_LocalRotation.z
      value: 0
      objectReference: {fileID: 0}
    - target: {fileID: 4000010238916134, guid: e479168dfdfb19248a685bc98134692a, type: 2}
      propertyPath: m_LocalRotation.w
      value: 1
      objectReference: {fileID: 0}
    - target: {fileID: 4000010238916134, guid: e479168dfdfb19248a685bc98134692a, type: 2}
      propertyPath: m_RootOrder
      value: 5
      objectReference: {fileID: 0}
    - target: {fileID: 1000012139293616, guid: e479168dfdfb19248a685bc98134692a, type: 2}
      propertyPath: m_Name
      value: SpaceBackground
      objectReference: {fileID: 0}
    m_RemovedComponents: []
  m_ParentPrefab: {fileID: 100100000, guid: e479168dfdfb19248a685bc98134692a, type: 2}
  m_IsPrefabParent: 0
--- !u!1001 &1654554004
Prefab:
  m_ObjectHideFlags: 0
  serializedVersion: 2
  m_Modification:
    m_TransformParent: {fileID: 0}
    m_Modifications:
    - target: {fileID: 485242, guid: 27bdbc251483ef547b6193bb312653e8, type: 2}
      propertyPath: m_LocalPosition.x
      value: 0
      objectReference: {fileID: 0}
    - target: {fileID: 485242, guid: 27bdbc251483ef547b6193bb312653e8, type: 2}
      propertyPath: m_LocalPosition.y
      value: 0
      objectReference: {fileID: 0}
    - target: {fileID: 485242, guid: 27bdbc251483ef547b6193bb312653e8, type: 2}
      propertyPath: m_LocalPosition.z
      value: 0
      objectReference: {fileID: 0}
    - target: {fileID: 485242, guid: 27bdbc251483ef547b6193bb312653e8, type: 2}
      propertyPath: m_LocalRotation.x
      value: 0
      objectReference: {fileID: 0}
    - target: {fileID: 485242, guid: 27bdbc251483ef547b6193bb312653e8, type: 2}
      propertyPath: m_LocalRotation.y
      value: 0
      objectReference: {fileID: 0}
    - target: {fileID: 485242, guid: 27bdbc251483ef547b6193bb312653e8, type: 2}
      propertyPath: m_LocalRotation.z
      value: 0
      objectReference: {fileID: 0}
    - target: {fileID: 485242, guid: 27bdbc251483ef547b6193bb312653e8, type: 2}
      propertyPath: m_LocalRotation.w
      value: 1
      objectReference: {fileID: 0}
    - target: {fileID: 485242, guid: 27bdbc251483ef547b6193bb312653e8, type: 2}
      propertyPath: m_RootOrder
      value: 0
      objectReference: {fileID: 0}
    m_RemovedComponents: []
  m_ParentPrefab: {fileID: 100100000, guid: 27bdbc251483ef547b6193bb312653e8, type: 2}
  m_IsPrefabParent: 0
--- !u!1001 &2030258809
Prefab:
  m_ObjectHideFlags: 0
  serializedVersion: 2
  m_Modification:
    m_TransformParent: {fileID: 0}
    m_Modifications:
    - target: {fileID: 461510, guid: dcfff29e15ef0304dbfabcb30a37ad97, type: 2}
      propertyPath: m_LocalPosition.x
      value: 0
      objectReference: {fileID: 0}
    - target: {fileID: 461510, guid: dcfff29e15ef0304dbfabcb30a37ad97, type: 2}
      propertyPath: m_LocalPosition.y
      value: 0
      objectReference: {fileID: 0}
    - target: {fileID: 461510, guid: dcfff29e15ef0304dbfabcb30a37ad97, type: 2}
      propertyPath: m_LocalPosition.z
      value: 0
      objectReference: {fileID: 0}
    - target: {fileID: 461510, guid: dcfff29e15ef0304dbfabcb30a37ad97, type: 2}
      propertyPath: m_LocalRotation.x
      value: 0
      objectReference: {fileID: 0}
    - target: {fileID: 461510, guid: dcfff29e15ef0304dbfabcb30a37ad97, type: 2}
      propertyPath: m_LocalRotation.y
      value: 0
      objectReference: {fileID: 0}
    - target: {fileID: 461510, guid: dcfff29e15ef0304dbfabcb30a37ad97, type: 2}
      propertyPath: m_LocalRotation.z
      value: 0
      objectReference: {fileID: 0}
    - target: {fileID: 461510, guid: dcfff29e15ef0304dbfabcb30a37ad97, type: 2}
      propertyPath: m_LocalRotation.w
      value: 1
      objectReference: {fileID: 0}
    - target: {fileID: 461510, guid: dcfff29e15ef0304dbfabcb30a37ad97, type: 2}
      propertyPath: m_RootOrder
      value: 3
      objectReference: {fileID: 0}
    m_RemovedComponents: []
  m_ParentPrefab: {fileID: 100100000, guid: dcfff29e15ef0304dbfabcb30a37ad97, type: 2}
  m_IsPrefabParent: 0
--- !u!1 &2088344740 stripped
GameObject:
  m_PrefabParentObject: {fileID: 196258, guid: dcfff29e15ef0304dbfabcb30a37ad97, type: 2}
  m_PrefabInternal: {fileID: 2030258809}
